<svg width="91" height="133" viewBox="0 0 91 133" fill="none" xmlns="http://www.w3.org/2000/svg">
<path d="M87.6423 74.6652C86.1853 74.6652 85.0034 73.4832 85.0034 72.0263L85.0023 45.6329C85.0023 29.415 75.2894 15.0052 60.2581 8.91985C58.9072 8.37308 58.2543 6.83437 58.8022 5.48354C59.349 4.13262 60.8877 3.4798 62.2385 4.02768C70.4258 7.34269 77.4059 12.9561 82.4241 20.2631C87.5639 27.7479 90.2811 36.5206 90.2811 45.6325V72.0248C90.2811 73.4828 89.0991 74.6647 87.6422 74.6647L87.6423 74.6652Z" fill="#810FF7"/>
<path d="M3.18503 48.2735C1.72697 48.2735 0.546143 47.0916 0.546143 45.6346C0.546143 20.8949 20.6743 0.766235 45.4145 0.766235C46.8726 0.766235 48.0534 1.94816 48.0534 3.40512C48.0534 4.86318 46.8715 6.044 45.4145 6.044C23.5855 6.044 5.82561 23.8039 5.82561 45.6329C5.8245 47.091 4.64368 48.2729 3.18562 48.2729L3.18503 48.2735Z" fill="#810FF7"/>
<path d="M29.5765 129.66C29.2462 129.66 28.9115 129.598 28.5868 129.467C20.3995 126.152 13.4194 120.538 8.40127 113.231C3.26149 105.747 0.54541 96.9736 0.54541 87.8617V61.4683C0.54541 60.0102 1.72734 58.8294 3.18429 58.8294C4.64235 58.8294 5.82318 60.0113 5.82318 61.4683V87.8605C5.82318 104.078 15.536 118.488 30.5674 124.574C31.9183 125.12 32.5711 126.659 32.0232 128.01C31.6079 129.037 30.6193 129.66 29.5766 129.66L29.5765 129.66Z" fill="#810FF7"/>
<path d="M45.4121 132.728C43.954 132.728 42.7732 131.546 42.7732 130.089C42.7732 128.632 43.9551 127.45 45.4121 127.45C67.2411 127.45 85.001 109.69 85.001 87.8613C85.001 86.4043 86.1829 85.2224 87.6399 85.2224C89.0968 85.2224 90.2788 86.4043 90.2788 87.8613C90.2799 112.601 70.1518 132.727 45.4132 132.727L45.4121 132.728Z" fill="#810FF7"/>
<path d="M71.8066 48.2735C70.3497 48.2735 69.1677 47.0916 69.1677 45.6346C69.1677 32.5375 58.5115 21.8813 45.4144 21.8813C43.9563 21.8813 42.7755 20.6994 42.7755 19.2424C42.7755 17.7843 43.9574 16.6035 45.4144 16.6035C61.4222 16.6035 74.4472 29.6269 74.4472 45.6363C74.4461 47.0922 73.2642 48.2741 71.8072 48.2741L71.8066 48.2735Z" fill="#810FF7"/>
<path d="M19.0205 74.6652C17.5624 74.6652 16.3816 73.4833 16.3816 72.0263V45.633C16.3816 36.415 20.6134 27.9494 27.993 22.4064C29.1584 21.5305 30.8131 21.7658 31.6878 22.9311C32.5638 24.0965 32.3285 25.7512 31.1631 26.6259C25.1233 31.1636 21.6592 38.0906 21.6592 45.6328V72.0251C21.6592 73.4831 20.4784 74.665 19.0203 74.665L19.0205 74.6652Z" fill="#810FF7"/>
<path d="M45.4122 116.892C29.4044 116.892 16.3794 103.869 16.3794 87.8596C16.3794 86.4026 17.5613 85.2207 19.0183 85.2207C20.4763 85.2207 21.6572 86.4026 21.6572 87.8596C21.6572 100.957 32.3134 111.613 45.4105 111.613C46.8686 111.613 48.0494 112.795 48.0494 114.252C48.0516 115.71 46.8697 116.892 45.4116 116.892L45.4122 116.892Z" fill="#810FF7"/>
<path d="M61.2507 111.619C60.4487 111.619 59.6567 111.255 59.1387 110.564C58.2627 109.398 58.498 107.744 59.6634 106.868C65.7032 102.332 69.1661 95.4054 69.1661 87.8631V61.4698C69.1661 60.0117 70.348 58.8309 71.805 58.8309C73.262 58.8309 74.4439 60.0128 74.4439 61.4698V87.862C74.4439 97.08 70.2121 105.546 62.8324 111.089C62.3586 111.445 61.803 111.619 61.2506 111.619L61.2507 111.619Z" fill="#810FF7"/>
<path d="M34.856 90.5007C33.398 90.5007 32.2172 89.3188 32.2172 87.8618V61.4685C32.2172 60.0104 33.3991 58.8296 34.856 58.8296C36.3141 58.8296 37.4949 60.0115 37.4949 61.4685V87.8607C37.4949 89.3188 36.3141 90.5007 34.856 90.5007V90.5007Z" fill="#810FF7"/>
<path d="M45.4121 101.057C43.954 101.057 42.7732 99.8749 42.7732 98.418C42.7732 96.961 43.9551 95.7791 45.4121 95.7791C49.7776 95.7791 53.3299 92.2268 53.3299 87.8613C53.3299 86.4043 54.5118 85.2224 55.9687 85.2224C57.4268 85.2224 58.6076 86.4043 58.6076 87.8613C58.6087 95.1372 52.6891 101.057 45.4121 101.057Z" fill="#810FF7"/>
<path d="M55.9709 74.6652C54.5129 74.6652 53.332 73.4832 53.332 72.0263L53.3309 45.6329C53.3309 44.1748 54.5129 42.994 55.9698 42.994C57.4279 42.994 58.6087 44.1759 58.6087 45.6329V72.0251C58.6098 73.4832 57.4279 74.6651 55.9709 74.6651L55.9709 74.6652Z" fill="#810FF7"/>
<path d="M34.856 48.2735C33.398 48.2735 32.2172 47.0916 32.2172 45.6346C32.2172 38.3587 38.1368 32.4379 45.4138 32.4379C46.8719 32.4379 48.0527 33.6199 48.0527 35.0768C48.0527 36.5349 46.8708 37.7157 45.4138 37.7157C41.0483 37.7157 37.4961 41.268 37.4961 45.6335C37.495 47.0915 36.3141 48.2735 34.8561 48.2735L34.856 48.2735Z" fill="#810FF7"/>
</svg>
