<svg width="345" height="8" viewBox="0 0 345 8" fill="none" xmlns="http://www.w3.org/2000/svg">
<rect opacity="0.3" width="30" height="8" rx="4" fill="white"/>
<rect opacity="0.3" x="35" width="30" height="8" rx="4" fill="white"/>
<rect opacity="0.3" x="70" width="30" height="8" rx="4" fill="white"/>
<rect opacity="0.3" x="105" width="30" height="8" rx="4" fill="white"/>
<rect opacity="0.3" x="140" width="30" height="8" rx="4" fill="white"/>
<rect opacity="0.3" x="175" width="30" height="8" rx="4" fill="white"/>
<rect opacity="0.3" x="210" width="30" height="8" rx="4" fill="white"/>
<rect opacity="0.3" x="245" width="30" height="8" rx="4" fill="white"/>
<rect x="280" width="30" height="8" rx="4" fill="white"/>
<rect opacity="0.3" x="315" width="30" height="8" rx="4" fill="white"/>
</svg>
